wave.vcd
$version Generated by VerilatedVcd $end
$date Sun Feb 20 17:14:29 2022
 $end
$timescale   1ns $end

 $scope module TOP $end
  $var wire  1 ;( CLK $end
  $var wire  7 C( HEX0 [6:0] $end
  $var wire  7 K( HEX1 [6:0] $end
  $var wire  7 S( HEX2 [6:0] $end
  $var wire  7 [( HEX3 [6:0] $end
  $var wire  7 c( HEX4 [6:0] $end
  $scope module computer $end
   $var wire  1 ;( CLK $end
   $var wire  7 C( HEX0 [6:0] $end
   $var wire  7 K( HEX1 [6:0] $end
   $var wire  7 S( HEX2 [6:0] $end
   $var wire  7 [( HEX3 [6:0] $end
   $var wire  7 c( HEX4 [6:0] $end
   $var wire 32 !# aluResult [31:0] $end
   $var wire 32 g" instruction [31:0] $end
   $var wire  7 1# led0 [6:0] $end
   $var wire  7 9# led1 [6:0] $end
   $var wire  7 A# led2 [6:0] $end
   $var wire  7 I# led3 [6:0] $end
   $var wire  7 Q# led4 [6:0] $end
   $var wire  1 w" memWrite $end
   $var wire  5 M% pc [4:0] $end
   $var wire 32 )# rd2 [31:0] $end
   $var wire 32 o" readData [31:0] $end
   $scope module CPU $end
    $var wire  4 Y# ALUop [3:0] $end
    $var wire 32 !# aluResult [31:0] $end
    $var wire 32 [$ alu_y [31:0] $end
    $var wire  1 3$ branch $end
    $var wire  1 ;( clk $end
    $var wire  1 +$ flag $end
    $var wire 32 K$ immediate [31:0] $end
    $var wire 32 g" instruction [31:0] $end
    $var wire  1 ;$ isImm $end
    $var wire  1 C$ memToReg $end
    $var wire  1 w" memWrite $end
    $var wire  5 M% pc [4:0] $end
    $var wire  5 y# rd [4:0] $end
    $var wire 32 q# rd1 [31:0] $end
    $var wire 32 )# rd2 [31:0] $end
    $var wire 32 o" readData [31:0] $end
    $var wire  5 a# rs1 [4:0] $end
    $var wire  5 i# rs2 [4:0] $end
    $var wire 32 S$ temp [31:0] $end
    $var wire  1 #$ we_reg $end
    $scope module ALU $end
     $var wire  4 Y# ALUop [3:0] $end
     $var wire  1 +$ flag $end
     $var wire 32 !# result [31:0] $end
     $var wire 32 q# x [31:0] $end
     $var wire 32 [$ y [31:0] $end
    $upscope $end
    $scope module controlUnit $end
     $var wire  4 Y# ALUop [3:0] $end
     $var wire  1 3$ branch $end
     $var wire 32 g" instruction [31:0] $end
     $var wire  1 ;$ isImm $end
     $var wire  1 C$ memToReg $end
     $var wire  1 w" memWrite $end
     $var wire  1 #$ we_reg $end
    $upscope $end
    $scope module decoder $end
     $var wire  7 k$ imm1 [6:0] $end
     $var wire  5 s$ imm2 [4:0] $end
     $var wire 12 {$ immediate [11:0] $end
     $var wire 32 g" instruction [31:0] $end
     $var wire  7 c$ op [6:0] $end
     $var wire  5 y# rd [4:0] $end
     $var wire  5 a# rs1 [4:0] $end
     $var wire  5 i# rs2 [4:0] $end
     $var wire 32 K$ signImm [31:0] $end
    $upscope $end
    $scope module regFile $end
     $var wire  1 ;( clk $end
     $var wire 32 S$ d [31:0] $end
     $var wire  5 y# rd [4:0] $end
     $var wire 32 q# rd1 [31:0] $end
     $var wire 32 )# rd2 [31:0] $end
     $var wire 32 U% register(0) [31:0] $end
     $var wire 32 V% register(1) [31:0] $end
     $var wire 32 _% register(10) [31:0] $end
     $var wire 32 `% register(11) [31:0] $end
     $var wire 32 a% register(12) [31:0] $end
     $var wire 32 b% register(13) [31:0] $end
     $var wire 32 c% register(14) [31:0] $end
     $var wire 32 d% register(15) [31:0] $end
     $var wire 32 e% register(16) [31:0] $end
     $var wire 32 f% register(17) [31:0] $end
     $var wire 32 g% register(18) [31:0] $end
     $var wire 32 h% register(19) [31:0] $end
     $var wire 32 W% register(2) [31:0] $end
     $var wire 32 i% register(20) [31:0] $end
     $var wire 32 j% register(21) [31:0] $end
     $var wire 32 k% register(22) [31:0] $end
     $var wire 32 l% register(23) [31:0] $end
     $var wire 32 m% register(24) [31:0] $end
     $var wire 32 n% register(25) [31:0] $end
     $var wire 32 o% register(26) [31:0] $end
     $var wire 32 p% register(27) [31:0] $end
     $var wire 32 q% register(28) [31:0] $end
     $var wire 32 r% register(29) [31:0] $end
     $var wire 32 X% register(3) [31:0] $end
     $var wire 32 s% register(30) [31:0] $end
     $var wire 32 t% register(31) [31:0] $end
     $var wire 32 Y% register(4) [31:0] $end
     $var wire 32 Z% register(5) [31:0] $end
     $var wire 32 [% register(6) [31:0] $end
     $var wire 32 \% register(7) [31:0] $end
     $var wire 32 ]% register(8) [31:0] $end
     $var wire 32 ^% register(9) [31:0] $end
     $var wire  5 a# rs1 [4:0] $end
     $var wire  5 i# rs2 [4:0] $end
     $var wire  1 #$ we_reg $end
    $upscope $end
   $upscope $end
   $scope module RAM $end
    $var wire 32 !# Ad [31:0] $end
    $var wire 32 o" Rd [31:0] $end
    $var wire 32 )# Wd [31:0] $end
    $var wire  1 ;( clk $end
    $var wire  1 w" we_ram $end
   $upscope $end
   $scope module imem $end
    $var wire 32 # ROM(0) [31:0] $end
    $var wire 32 $ ROM(1) [31:0] $end
    $var wire 32 - ROM(10) [31:0] $end
    $var wire 32 . ROM(11) [31:0] $end
    $var wire 32 / ROM(12) [31:0] $end
    $var wire 32 0 ROM(13) [31:0] $end
    $var wire 32 1 ROM(14) [31:0] $end
    $var wire 32 2 ROM(15) [31:0] $end
    $var wire 32 3 ROM(16) [31:0] $end
    $var wire 32 4 ROM(17) [31:0] $end
    $var wire 32 5 ROM(18) [31:0] $end
    $var wire 32 6 ROM(19) [31:0] $end
    $var wire 32 % ROM(2) [31:0] $end
    $var wire 32 7 ROM(20) [31:0] $end
    $var wire 32 8 ROM(21) [31:0] $end
    $var wire 32 9 ROM(22) [31:0] $end
    $var wire 32 : ROM(23) [31:0] $end
    $var wire 32 ; ROM(24) [31:0] $end
    $var wire 32 < ROM(25) [31:0] $end
    $var wire 32 = ROM(26) [31:0] $end
    $var wire 32 > ROM(27) [31:0] $end
    $var wire 32 ? ROM(28) [31:0] $end
    $var wire 32 @ ROM(29) [31:0] $end
    $var wire 32 & ROM(3) [31:0] $end
    $var wire 32 A ROM(30) [31:0] $end
    $var wire 32 B ROM(31) [31:0] $end
    $var wire 32 ' ROM(4) [31:0] $end
    $var wire 32 ( ROM(5) [31:0] $end
    $var wire 32 ) ROM(6) [31:0] $end
    $var wire 32 * ROM(7) [31:0] $end
    $var wire 32 + ROM(8) [31:0] $end
    $var wire 32 , ROM(9) [31:0] $end
    $var wire 32 g" instruction [31:0] $end
    $var wire  5 M% pc [4:0] $end
   $upscope $end
   $scope module seg7dec0 $end
    $var wire  7 1# decoded [6:0] $end
    $var wire  4 %% sw [3:0] $end
   $upscope $end
   $scope module seg7dec1 $end
    $var wire  7 9# decoded [6:0] $end
    $var wire  4 -% sw [3:0] $end
   $upscope $end
   $scope module seg7dec2 $end
    $var wire  7 A# decoded [6:0] $end
    $var wire  4 5% sw [3:0] $end
   $upscope $end
   $scope module seg7dec3 $end
    $var wire  7 I# decoded [6:0] $end
    $var wire  4 =% sw [3:0] $end
   $upscope $end
   $scope module seg7dec4 $end
    $var wire  7 Q# decoded [6:0] $end
    $var wire  4 E% sw [3:0] $end
   $upscope $end
  $upscope $end
 $upscope $end
$enddefinitions $end


#0
b00000000101000000000010100010011 #
b00000000101000000000010110110011 $
b00000000000100000000011000010011 %
b00000000000000000000010100010011 &
b00000000001000000000011010010011 '
b00000000110000000100111001100011 (
b00000000000000000000011110010011 )
b00000000110101111000011110110011 *
b11111110101101111100111011100011 +
b00000000111101011100010001100011 ,
b00000000110000000100100001100011 -
b00000000000101101000011010010011 .
b11111110101101101100010011100011 /
b00000000101101010000010100110011 0
b11111111111101011000010110010011 1
b11111100101101100100101011100011 2
b00000000101000000010111110100011 3
b00000000000000000000000000000000 4
b00000000000000000000000000000000 5
b00000000000000000000000000000000 6
b00000000000000000000000000000000 7
b00000000000000000000000000000000 8
b00000000000000000000000000000000 9
b00000000000000000000000000000000 :
b00000000000000000000000000000000 ;
b00000000000000000000000000000000 <
b00000000000000000000000000000000 =
b00000000000000000000000000000000 >
b00000000000000000000000000000000 ?
b00000000000000000000000000000000 @
b00000000000000000000000000000000 A
b00000000000000000000000000000000 B
b00000000101000000000010100010011 g"
b00000000000000000000000000000000 o"
0w"
b00000000000000000000000000001010 !#
b00000000000000000000000000000000 )#
b1000000 1#
b1000000 9#
b1000000 A#
b1000000 I#
b1000000 Q#
b0011 Y#
b00000 a#
b00000 i#
b00000000000000000000000000000000 q#
b01010 y#
1#$
0+$
03$
1;$
0C$
b00000000000000000000000000001010 K$
b00000000000000000000000000001010 S$
b00000000000000000000000000001010 [$
b0010011 c$
b0000000 k$
b01010 s$
b000000001010 {$
b0000 %%
b0000 -%
b0000 5%
b0000 =%
b0000 E%
b00000 M%
b00000000000000000000000000000000 U%
b00000000000000000000000000000000 V%
b00000000000000000000000000000000 W%
b00000000000000000000000000000000 X%
b00000000000000000000000000000000 Y%
b00000000000000000000000000000000 Z%
b00000000000000000000000000000000 [%
b00000000000000000000000000000000 \%
b00000000000000000000000000000000 ]%
b00000000000000000000000000000000 ^%
b00000000000000000000000000000000 _%
b00000000000000000000000000000000 `%
b00000000000000000000000000000000 a%
b00000000000000000000000000000000 b%
b00000000000000000000000000000000 c%
b00000000000000000000000000000000 d%
b00000000000000000000000000000000 e%
b00000000000000000000000000000000 f%
b00000000000000000000000000000000 g%
b00000000000000000000000000000000 h%
b00000000000000000000000000000000 i%
b00000000000000000000000000000000 j%
b00000000000000000000000000000000 k%
b00000000000000000000000000000000 l%
b00000000000000000000000000000000 m%
b00000000000000000000000000000000 n%
b00000000000000000000000000000000 o%
b00000000000000000000000000000000 p%
b00000000000000000000000000000000 q%
b00000000000000000000000000000000 r%
b00000000000000000000000000000000 s%
b00000000000000000000000000000000 t%
0;(
b0000000 C(
b0000000 K(
b0000000 S(
b0000000 [(
b0000000 c(
#1
#2
#3
#4
#5
#6
#7
#8
#9
#10
#11
#12
#13
#14
#15
#16
#17
#18
#19
#20
#21
#22
#23
#24
#25
#26
#27
#28
#29
#30
#31
#32
#33
#34
#35
#36
#37
#38
#39
#40
#41
#42
#43
#44
#45
#46
#47
#48
#49
#50
#51
#52
#53
#54
#55
#56
#57
#58
#59
#60
#61
#62
#63
#64
#65
#66
#67
#68
#69
#70
#71
#72
#73
#74
#75
#76
#77
#78
#79
#80
#81
#82
#83
#84
#85
#86
#87
#88
#89
#90
#91
#92
#93
#94
#95
#96
#97
#98
#99
#100
b00000000101000000000010110110011 g"
b00000000000000000000000000001010 )#
b0001000 1#
b01010 i#
b01011 y#
0;$
b00000000000000000000000000000000 K$
b0110011 c$
b00000 s$
b000000000000 {$
b1010 %%
b00001 M%
b00000000000000000000000000001010 _%
1;(
#101
#102
#103
#104
#105
0;(
#106
#107
#108
#109
#110
b00000000000100000000011000010011 g"
b00000000000000000000000000000001 !#
b00000000000000000000000000000000 )#
b1000000 1#
b00000 i#
b01100 y#
1;$
b00000000000000000000000000000001 K$
b00000000000000000000000000000001 S$
b00000000000000000000000000000001 [$
b0010011 c$
b00001 s$
b000000000001 {$
b0000 %%
b00010 M%
b00000000000000000000000000001010 `%
1;(
#111
#112
#113
#114
#115
0;(
#116
#117
#118
#119
#120
b00000000000000000000010100010011 g"
b00000000000000000000000000000000 !#
b01010 y#
b00000000000000000000000000000000 K$
b00000000000000000000000000000000 S$
b00000000000000000000000000000000 [$
b00000 s$
b000000000000 {$
b00011 M%
b00000000000000000000000000000001 a%
1;(
#121
#122
#123
#124
#125
0;(
#126
#127
#128
#129
#130
b00000000001000000000011010010011 g"
b00000000000000000000000000000010 !#
b01101 y#
b00000000000000000000000000000010 K$
b00000000000000000000000000000010 S$
b00000000000000000000000000000010 [$
b00010 s$
b000000000010 {$
b00100 M%
b00000000000000000000000000000000 _%
1;(
#131
#132
#133
#134
#135
0;(
#136
#137
#138
#139
#140
b00000000110000000100111001100011 g"
b00000000000000000000000000000001 !#
b00000000000000000000000000000001 )#
b1111001 1#
b1010 Y#
b01100 i#
b00000 y#
0#$
1+$
13$
0;$
b00000000000000000000000000011100 K$
b00000000000000000000000000000001 S$
b00000000000000000000000000000001 [$
b1100011 c$
b11100 s$
b000000011100 {$
b0001 %%
b00101 M%
b00000000000000000000000000000010 b%
1;(
#141
#142
#143
#144
#145
0;(
#146
#147
#148
#149
#150
b00000000101000000000010110110011 g"
b00000000000000000000000000000000 !#
b00000000000000000000000000000000 )#
b1000000 1#
b0011 Y#
b01010 i#
b01011 y#
1#$
0+$
03$
b00000000000000000000000000000000 K$
b00000000000000000000000000000000 S$
b00000000000000000000000000000000 [$
b0110011 c$
b00000 s$
b000000000000 {$
b0000 %%
b00001 M%
1;(
#151
#152
#153
#154
#155
0;(
#156
#157
#158
#159
#160
b00000000000100000000011000010011 g"
b00000000000000000000000000000001 !#
b00000 i#
b01100 y#
1;$
b00000000000000000000000000000001 K$
b00000000000000000000000000000001 S$
b00000000000000000000000000000001 [$
b0010011 c$
b00001 s$
b000000000001 {$
b00010 M%
b00000000000000000000000000000000 `%
1;(
#161
#162
#163
#164
#165
0;(
#166
#167
#168
#169
#170
b00000000000000000000010100010011 g"
b00000000000000000000000000000000 !#
b01010 y#
b00000000000000000000000000000000 K$
b00000000000000000000000000000000 S$
b00000000000000000000000000000000 [$
b00000 s$
b000000000000 {$
b00011 M%
1;(
#171
#172
#173
#174
#175
0;(
#176
#177
#178
#179
#180
b00000000001000000000011010010011 g"
b00000000000000000000000000000010 !#
b01101 y#
b00000000000000000000000000000010 K$
b00000000000000000000000000000010 S$
b00000000000000000000000000000010 [$
b00010 s$
b000000000010 {$
b00100 M%
1;(
#181
#182
#183
#184
#185
0;(
#186
#187
#188
#189
#190
b00000000110000000100111001100011 g"
b00000000000000000000000000000001 !#
b00000000000000000000000000000001 )#
b1111001 1#
b1010 Y#
b01100 i#
b00000 y#
0#$
1+$
13$
0;$
b00000000000000000000000000011100 K$
b00000000000000000000000000000001 S$
b00000000000000000000000000000001 [$
b1100011 c$
b11100 s$
b000000011100 {$
b0001 %%
b00101 M%
1;(
#191
#192
#193
#194
#195
0;(
#196
#197
#198
#199
#200
b00000000101000000000010110110011 g"
b00000000000000000000000000000000 !#
b00000000000000000000000000000000 )#
b1000000 1#
b0011 Y#
b01010 i#
b01011 y#
1#$
0+$
03$
b00000000000000000000000000000000 K$
b00000000000000000000000000000000 S$
b00000000000000000000000000000000 [$
b0110011 c$
b00000 s$
b000000000000 {$
b0000 %%
b00001 M%
1;(
#201
#202
#203
#204
#205
0;(
#206
#207
#208
#209
#210
b00000000000100000000011000010011 g"
b00000000000000000000000000000001 !#
b00000 i#
b01100 y#
1;$
b00000000000000000000000000000001 K$
b00000000000000000000000000000001 S$
b00000000000000000000000000000001 [$
b0010011 c$
b00001 s$
b000000000001 {$
b00010 M%
1;(
#211
#212
#213
#214
#215
0;(
#216
#217
#218
#219
#220
b00000000000000000000010100010011 g"
b00000000000000000000000000000000 !#
b01010 y#
b00000000000000000000000000000000 K$
b00000000000000000000000000000000 S$
b00000000000000000000000000000000 [$
b00000 s$
b000000000000 {$
b00011 M%
1;(
#221
#222
#223
#224
#225
0;(
#226
#227
#228
#229
#230
b00000000001000000000011010010011 g"
b00000000000000000000000000000010 !#
b01101 y#
b00000000000000000000000000000010 K$
b00000000000000000000000000000010 S$
b00000000000000000000000000000010 [$
b00010 s$
b000000000010 {$
b00100 M%
1;(
#231
#232
#233
#234
#235
0;(
#236
#237
#238
#239
#240
b00000000110000000100111001100011 g"
b00000000000000000000000000000001 !#
b00000000000000000000000000000001 )#
b1111001 1#
b1010 Y#
b01100 i#
b00000 y#
0#$
1+$
13$
0;$
b00000000000000000000000000011100 K$
b00000000000000000000000000000001 S$
b00000000000000000000000000000001 [$
b1100011 c$
b11100 s$
b000000011100 {$
b0001 %%
b00101 M%
1;(
#241
#242
#243
#244
#245
0;(
#246
#247
#248
#249
#250
b00000000101000000000010110110011 g"
b00000000000000000000000000000000 !#
b00000000000000000000000000000000 )#
b1000000 1#
b0011 Y#
b01010 i#
b01011 y#
1#$
0+$
03$
b00000000000000000000000000000000 K$
b00000000000000000000000000000000 S$
b00000000000000000000000000000000 [$
b0110011 c$
b00000 s$
b000000000000 {$
b0000 %%
b00001 M%
1;(
#251
#252
#253
#254
#255
0;(
#256
#257
#258
#259
#260
b00000000000100000000011000010011 g"
b00000000000000000000000000000001 !#
b00000 i#
b01100 y#
1;$
b00000000000000000000000000000001 K$
b00000000000000000000000000000001 S$
b00000000000000000000000000000001 [$
b0010011 c$
b00001 s$
b000000000001 {$
b00010 M%
1;(
#261
#262
#263
#264
#265
0;(
#266
#267
#268
#269
#270
b00000000000000000000010100010011 g"
b00000000000000000000000000000000 !#
b01010 y#
b00000000000000000000000000000000 K$
b00000000000000000000000000000000 S$
b00000000000000000000000000000000 [$
b00000 s$
b000000000000 {$
b00011 M%
1;(
#271
#272
#273
#274
#275
0;(
#276
#277
#278
#279
#280
b00000000001000000000011010010011 g"
b00000000000000000000000000000010 !#
b01101 y#
b00000000000000000000000000000010 K$
b00000000000000000000000000000010 S$
b00000000000000000000000000000010 [$
b00010 s$
b000000000010 {$
b00100 M%
1;(
#281
#282
#283
#284
#285
0;(
#286
#287
#288
#289
#290
b00000000110000000100111001100011 g"
b00000000000000000000000000000001 !#
b00000000000000000000000000000001 )#
b1111001 1#
b1010 Y#
b01100 i#
b00000 y#
0#$
1+$
13$
0;$
b00000000000000000000000000011100 K$
b00000000000000000000000000000001 S$
b00000000000000000000000000000001 [$
b1100011 c$
b11100 s$
b000000011100 {$
b0001 %%
b00101 M%
1;(
#291
#292
#293
#294
#295
0;(
#296
#297
#298
#299
#300
b00000000101000000000010110110011 g"
b00000000000000000000000000000000 !#
b00000000000000000000000000000000 )#
b1000000 1#
b0011 Y#
b01010 i#
b01011 y#
1#$
0+$
03$
b00000000000000000000000000000000 K$
b00000000000000000000000000000000 S$
b00000000000000000000000000000000 [$
b0110011 c$
b00000 s$
b000000000000 {$
b0000 %%
b00001 M%
1;(
#301
#302
#303
#304
#305
0;(
#306
#307
#308
#309
#310
b00000000000100000000011000010011 g"
b00000000000000000000000000000001 !#
b00000 i#
b01100 y#
1;$
b00000000000000000000000000000001 K$
b00000000000000000000000000000001 S$
b00000000000000000000000000000001 [$
b0010011 c$
b00001 s$
b000000000001 {$
b00010 M%
1;(
#311
#312
#313
#314
#315
0;(
#316
#317
#318
#319
#320
b00000000000000000000010100010011 g"
b00000000000000000000000000000000 !#
b01010 y#
b00000000000000000000000000000000 K$
b00000000000000000000000000000000 S$
b00000000000000000000000000000000 [$
b00000 s$
b000000000000 {$
b00011 M%
1;(
#321
#322
#323
#324
#325
0;(
#326
#327
#328
#329
#330
b00000000001000000000011010010011 g"
b00000000000000000000000000000010 !#
b01101 y#
b00000000000000000000000000000010 K$
b00000000000000000000000000000010 S$
b00000000000000000000000000000010 [$
b00010 s$
b000000000010 {$
b00100 M%
1;(
#331
#332
#333
#334
#335
0;(
#336
#337
#338
#339
#340
b00000000110000000100111001100011 g"
b00000000000000000000000000000001 !#
b00000000000000000000000000000001 )#
b1111001 1#
b1010 Y#
b01100 i#
b00000 y#
0#$
1+$
13$
0;$
b00000000000000000000000000011100 K$
b00000000000000000000000000000001 S$
b00000000000000000000000000000001 [$
b1100011 c$
b11100 s$
b000000011100 {$
b0001 %%
b00101 M%
1;(
#341
#342
#343
#344
#345
0;(
#346
#347
#348
#349
#350
b00000000101000000000010110110011 g"
b00000000000000000000000000000000 !#
b00000000000000000000000000000000 )#
b1000000 1#
b0011 Y#
b01010 i#
b01011 y#
1#$
0+$
03$
b00000000000000000000000000000000 K$
b00000000000000000000000000000000 S$
b00000000000000000000000000000000 [$
b0110011 c$
b00000 s$
b000000000000 {$
b0000 %%
b00001 M%
1;(
#351
#352
#353
#354
#355
0;(
#356
#357
#358
#359
#360
b00000000000100000000011000010011 g"
b00000000000000000000000000000001 !#
b00000 i#
b01100 y#
1;$
b00000000000000000000000000000001 K$
b00000000000000000000000000000001 S$
b00000000000000000000000000000001 [$
b0010011 c$
b00001 s$
b000000000001 {$
b00010 M%
1;(
#361
#362
#363
#364
#365
0;(
#366
#367
#368
#369
#370
b00000000000000000000010100010011 g"
b00000000000000000000000000000000 !#
b01010 y#
b00000000000000000000000000000000 K$
b00000000000000000000000000000000 S$
b00000000000000000000000000000000 [$
b00000 s$
b000000000000 {$
b00011 M%
1;(
#371
#372
#373
#374
#375
0;(
#376
#377
#378
#379
#380
b00000000001000000000011010010011 g"
b00000000000000000000000000000010 !#
b01101 y#
b00000000000000000000000000000010 K$
b00000000000000000000000000000010 S$
b00000000000000000000000000000010 [$
b00010 s$
b000000000010 {$
b00100 M%
1;(
#381
#382
#383
#384
#385
0;(
#386
#387
#388
#389
#390
b00000000110000000100111001100011 g"
b00000000000000000000000000000001 !#
b00000000000000000000000000000001 )#
b1111001 1#
b1010 Y#
b01100 i#
b00000 y#
0#$
1+$
13$
0;$
b00000000000000000000000000011100 K$
b00000000000000000000000000000001 S$
b00000000000000000000000000000001 [$
b1100011 c$
b11100 s$
b000000011100 {$
b0001 %%
b00101 M%
1;(
#391
#392
#393
#394
#395
0;(
#396
#397
#398
#399
#400
b00000000101000000000010110110011 g"
b00000000000000000000000000000000 !#
b00000000000000000000000000000000 )#
b1000000 1#
b0011 Y#
b01010 i#
b01011 y#
1#$
0+$
03$
b00000000000000000000000000000000 K$
b00000000000000000000000000000000 S$
b00000000000000000000000000000000 [$
b0110011 c$
b00000 s$
b000000000000 {$
b0000 %%
b00001 M%
1;(
#401
#402
#403
#404
#405
0;(
#406
#407
#408
#409
#410
b00000000000100000000011000010011 g"
b00000000000000000000000000000001 !#
b00000 i#
b01100 y#
1;$
b00000000000000000000000000000001 K$
b00000000000000000000000000000001 S$
b00000000000000000000000000000001 [$
b0010011 c$
b00001 s$
b000000000001 {$
b00010 M%
1;(
#411
#412
#413
#414
#415
0;(
#416
#417
#418
#419
#420
b00000000000000000000010100010011 g"
b00000000000000000000000000000000 !#
b01010 y#
b00000000000000000000000000000000 K$
b00000000000000000000000000000000 S$
b00000000000000000000000000000000 [$
b00000 s$
b000000000000 {$
b00011 M%
1;(
#421
#422
#423
#424
#425
0;(
#426
#427
#428
#429
#430
b00000000001000000000011010010011 g"
b00000000000000000000000000000010 !#
b01101 y#
b00000000000000000000000000000010 K$
b00000000000000000000000000000010 S$
b00000000000000000000000000000010 [$
b00010 s$
b000000000010 {$
b00100 M%
1;(
#431
#432
#433
#434
#435
0;(
#436
#437
#438
#439
#440
b00000000110000000100111001100011 g"
b00000000000000000000000000000001 !#
b00000000000000000000000000000001 )#
b1111001 1#
b1010 Y#
b01100 i#
b00000 y#
0#$
1+$
13$
0;$
b00000000000000000000000000011100 K$
b00000000000000000000000000000001 S$
b00000000000000000000000000000001 [$
b1100011 c$
b11100 s$
b000000011100 {$
b0001 %%
b00101 M%
1;(
#441
#442
#443
#444
#445
0;(
#446
#447
#448
#449
#450
b00000000101000000000010110110011 g"
b00000000000000000000000000000000 !#
b00000000000000000000000000000000 )#
b1000000 1#
b0011 Y#
b01010 i#
b01011 y#
1#$
0+$
03$
b00000000000000000000000000000000 K$
b00000000000000000000000000000000 S$
b00000000000000000000000000000000 [$
b0110011 c$
b00000 s$
b000000000000 {$
b0000 %%
b00001 M%
1;(
#451
#452
#453
#454
#455
0;(
#456
#457
#458
#459
#460
b00000000000100000000011000010011 g"
b00000000000000000000000000000001 !#
b00000 i#
b01100 y#
1;$
b00000000000000000000000000000001 K$
b00000000000000000000000000000001 S$
b00000000000000000000000000000001 [$
b0010011 c$
b00001 s$
b000000000001 {$
b00010 M%
1;(
#461
#462
#463
#464
#465
0;(
#466
#467
#468
#469
#470
b00000000000000000000010100010011 g"
b00000000000000000000000000000000 !#
b01010 y#
b00000000000000000000000000000000 K$
b00000000000000000000000000000000 S$
b00000000000000000000000000000000 [$
b00000 s$
b000000000000 {$
b00011 M%
1;(
#471
#472
#473
#474
#475
0;(
#476
#477
#478
#479
#480
b00000000001000000000011010010011 g"
b00000000000000000000000000000010 !#
b01101 y#
b00000000000000000000000000000010 K$
b00000000000000000000000000000010 S$
b00000000000000000000000000000010 [$
b00010 s$
b000000000010 {$
b00100 M%
1;(
#481
#482
#483
#484
#485
0;(
#486
#487
#488
#489
#490
b00000000110000000100111001100011 g"
b00000000000000000000000000000001 !#
b00000000000000000000000000000001 )#
b1111001 1#
b1010 Y#
b01100 i#
b00000 y#
0#$
1+$
13$
0;$
b00000000000000000000000000011100 K$
b00000000000000000000000000000001 S$
b00000000000000000000000000000001 [$
b1100011 c$
b11100 s$
b000000011100 {$
b0001 %%
b00101 M%
1;(
#491
#492
#493
#494
#495
0;(
#496
#497
#498
#499
#500
b00000000101000000000010110110011 g"
b00000000000000000000000000000000 !#
b00000000000000000000000000000000 )#
b1000000 1#
b0011 Y#
b01010 i#
b01011 y#
1#$
0+$
03$
b00000000000000000000000000000000 K$
b00000000000000000000000000000000 S$
b00000000000000000000000000000000 [$
b0110011 c$
b00000 s$
b000000000000 {$
b0000 %%
b00001 M%
1;(
#501
#502
#503
#504
#505
0;(
#506
#507
#508
#509
#510
b00000000000100000000011000010011 g"
b00000000000000000000000000000001 !#
b00000 i#
b01100 y#
1;$
b00000000000000000000000000000001 K$
b00000000000000000000000000000001 S$
b00000000000000000000000000000001 [$
b0010011 c$
b00001 s$
b000000000001 {$
b00010 M%
1;(
#511
#512
#513
#514
#515
0;(
#516
#517
#518
#519
#520
b00000000000000000000010100010011 g"
b00000000000000000000000000000000 !#
b01010 y#
b00000000000000000000000000000000 K$
b00000000000000000000000000000000 S$
b00000000000000000000000000000000 [$
b00000 s$
b000000000000 {$
b00011 M%
1;(
#521
#522
#523
#524
#525
0;(
#526
#527
#528
#529
#530
b00000000001000000000011010010011 g"
b00000000000000000000000000000010 !#
b01101 y#
b00000000000000000000000000000010 K$
b00000000000000000000000000000010 S$
b00000000000000000000000000000010 [$
b00010 s$
b000000000010 {$
b00100 M%
1;(
#531
#532
#533
#534
#535
0;(
#536
#537
#538
#539
#540
b00000000110000000100111001100011 g"
b00000000000000000000000000000001 !#
b00000000000000000000000000000001 )#
b1111001 1#
b1010 Y#
b01100 i#
b00000 y#
0#$
1+$
13$
0;$
b00000000000000000000000000011100 K$
b00000000000000000000000000000001 S$
b00000000000000000000000000000001 [$
b1100011 c$
b11100 s$
b000000011100 {$
b0001 %%
b00101 M%
1;(
#541
#542
#543
#544
#545
0;(
#546
#547
#548
#549
#550
b00000000101000000000010110110011 g"
b00000000000000000000000000000000 !#
b00000000000000000000000000000000 )#
b1000000 1#
b0011 Y#
b01010 i#
b01011 y#
1#$
0+$
03$
b00000000000000000000000000000000 K$
b00000000000000000000000000000000 S$
b00000000000000000000000000000000 [$
b0110011 c$
b00000 s$
b000000000000 {$
b0000 %%
b00001 M%
1;(
#551
#552
#553
#554
#555
0;(
#556
#557
#558
#559
#560
b00000000000100000000011000010011 g"
b00000000000000000000000000000001 !#
b00000 i#
b01100 y#
1;$
b00000000000000000000000000000001 K$
b00000000000000000000000000000001 S$
b00000000000000000000000000000001 [$
b0010011 c$
b00001 s$
b000000000001 {$
b00010 M%
1;(
#561
#562
#563
#564
#565
0;(
#566
#567
#568
#569
#570
b00000000000000000000010100010011 g"
b00000000000000000000000000000000 !#
b01010 y#
b00000000000000000000000000000000 K$
b00000000000000000000000000000000 S$
b00000000000000000000000000000000 [$
b00000 s$
b000000000000 {$
b00011 M%
1;(
#571
#572
#573
#574
#575
0;(
#576
#577
#578
#579
#580
b00000000001000000000011010010011 g"
b00000000000000000000000000000010 !#
b01101 y#
b00000000000000000000000000000010 K$
b00000000000000000000000000000010 S$
b00000000000000000000000000000010 [$
b00010 s$
b000000000010 {$
b00100 M%
1;(
#581
#582
#583
#584
#585
0;(
#586
#587
#588
#589
#590
b00000000110000000100111001100011 g"
b00000000000000000000000000000001 !#
b00000000000000000000000000000001 )#
b1111001 1#
b1010 Y#
b01100 i#
b00000 y#
0#$
1+$
13$
0;$
b00000000000000000000000000011100 K$
b00000000000000000000000000000001 S$
b00000000000000000000000000000001 [$
b1100011 c$
b11100 s$
b000000011100 {$
b0001 %%
b00101 M%
1;(
#591
#592
#593
#594
#595
0;(
#596
#597
#598
#599
#600
b00000000101000000000010110110011 g"
b00000000000000000000000000000000 !#
b00000000000000000000000000000000 )#
b1000000 1#
b0011 Y#
b01010 i#
b01011 y#
1#$
0+$
03$
b00000000000000000000000000000000 K$
b00000000000000000000000000000000 S$
b00000000000000000000000000000000 [$
b0110011 c$
b00000 s$
b000000000000 {$
b0000 %%
b00001 M%
1;(
#601
#602
#603
#604
#605
0;(
#606
#607
#608
#609
#610
b00000000000100000000011000010011 g"
b00000000000000000000000000000001 !#
b00000 i#
b01100 y#
1;$
b00000000000000000000000000000001 K$
b00000000000000000000000000000001 S$
b00000000000000000000000000000001 [$
b0010011 c$
b00001 s$
b000000000001 {$
b00010 M%
1;(
#611
#612
#613
#614
#615
0;(
#616
#617
#618
#619
#620
b00000000000000000000010100010011 g"
b00000000000000000000000000000000 !#
b01010 y#
b00000000000000000000000000000000 K$
b00000000000000000000000000000000 S$
b00000000000000000000000000000000 [$
b00000 s$
b000000000000 {$
b00011 M%
1;(
#621
#622
#623
#624
#625
0;(
#626
#627
#628
#629
#630
b00000000001000000000011010010011 g"
b00000000000000000000000000000010 !#
b01101 y#
b00000000000000000000000000000010 K$
b00000000000000000000000000000010 S$
b00000000000000000000000000000010 [$
b00010 s$
b000000000010 {$
b00100 M%
1;(
#631
#632
#633
#634
#635
0;(
#636
#637
#638
#639
